{
    "product_id": "api_374e9fde-cc61-42d5-a33d-f65ccf147a3b",
    "tool_description": "API returns over 50,000+ famous quotes from over 10,000+ great authors and over 350+ different categories.",
    "home_url": "https://rapidapi.com/karanp41-eRiF1pYLK1P/api/world-of-quotes/",
    "name": "World of Quotes",
    "title": "World of Quotes",
    "pricing": "FREEMIUM",
    "tool_name": "World of Quotes",
    "score": {
        "avgServiceLevel": 99,
        "avgLatency": 1516,
        "avgSuccessRate": 96,
        "popularityScore": 8.1,
        "__typename": "Score"
    },
    "host": "world-of-quotes.p.rapidapi.com",
    "api_list": [
        {
            "name": "Get Quotes By Specific Category",
            "url": "https://world-of-quotes.p.rapidapi.com/v1/quotes",
            "description": "This API returns the collection of quotes by category you pass in the query params. Maximum you can get 20 quotes at a time and can be customized by *limit*. Our API support pagination and records can be paginated by *page* query param.",
            "method": "GET",
            "required_parameters": [
                {
                    "name": "category",
                    "type": "STRING",
                    "description": "",
                    "default": "age"
                }
            ],
            "optional_parameters": [
                {
                    "name": "page",
                    "type": "NUMBER",
                    "description": "",
                    "default": "2"
                },
                {
                    "name": "limit",
                    "type": "NUMBER",
                    "description": "",
                    "default": "20"
                }
            ],
            "code": "import requests\n\nurl = \"https://world-of-quotes.p.rapidapi.com/v1/quotes\"\nquerystring = {\"page\": \"2\", \"limit\": \"20\", \"category\": \"age\"}\n\nheaders = {\n            \"X-RapidAPI-Key\": \"SIGN-UP-FOR-KEY\",\n            \"X-RapidAPI-Host\": \"world-of-quotes.p.rapidapi.com\"\n        }\n\nresponse = requests.get(url, headers=headers, params=querystring)\nprint(response.json())\n",
            "convert_code": "import requests\n\nurl = \"https://world-of-quotes.p.rapidapi.com/v1/quotes\"\nquerystring = {\"page\": \"2\", \"limit\": \"20\", \"category\": \"age\"}\n\nheaders = {\n            \"X-RapidAPI-Key\": \"SIGN-UP-FOR-KEY\",\n            \"X-RapidAPI-Host\": \"world-of-quotes.p.rapidapi.com\"\n        }\n\nresponse = requests.get(url, headers=headers, params=querystring)\nprint(response.json())\n",
            "test_endpoint": "",
            "statuscode": 200,
            "schema": {
                "results": [],
                "page": 1,
                "limit": 10,
                "totalPages": 87,
                "totalResults": 864
            }
        },
        {
            "name": "Get Quote of the Day",
            "url": "https://world-of-quotes.p.rapidapi.com/v1/quotes/quote-of-the-day",
            "description": "This API returns the handpicked quote of the day among 45,000+ quotes based on the highest ratings.\nYou may also get quote of the day of specific *author* or *category*.",
            "method": "GET",
            "required_parameters": [],
            "optional_parameters": [
                {
                    "name": "author",
                    "type": "STRING",
                    "description": "",
                    "default": ""
                },
                {
                    "name": "category",
                    "type": "STRING",
                    "description": "",
                    "default": "inspirational"
                }
            ],
            "code": "import requests\n\nurl = \"https://world-of-quotes.p.rapidapi.com/v1/quotes/quote-of-the-day\"\nquerystring = {\"author\": \"\", \"category\": \"inspirational\"}\n\nheaders = {\n            \"X-RapidAPI-Key\": \"SIGN-UP-FOR-KEY\",\n            \"X-RapidAPI-Host\": \"world-of-quotes.p.rapidapi.com\"\n        }\n\nresponse = requests.get(url, headers=headers, params=querystring)\nprint(response.json())\n",
            "convert_code": "import requests\n\nurl = \"https://world-of-quotes.p.rapidapi.com/v1/quotes/quote-of-the-day\"\nquerystring = {\"author\": \"\", \"category\": \"inspirational\"}\n\nheaders = {\n            \"X-RapidAPI-Key\": \"SIGN-UP-FOR-KEY\",\n            \"X-RapidAPI-Host\": \"world-of-quotes.p.rapidapi.com\"\n        }\n\nresponse = requests.get(url, headers=headers, params=querystring)\nprint(response.json())\n",
            "test_endpoint": "",
            "statuscode": 200,
            "schema": {
                "results": [],
                "page": 1,
                "limit": 10,
                "totalPages": 87,
                "totalResults": 864
            }
        },
        {
            "name": "Get Quotes By Specific Author",
            "url": "https://world-of-quotes.p.rapidapi.com/v1/quotes",
            "description": "This API returns the collection of quotes by author you pass in the query params. Maximum you can get 20 quotes at a time and can be customized by *limit*. Our API support pagination and records can be paginated by *page* query param.",
            "method": "GET",
            "required_parameters": [
                {
                    "name": "author",
                    "type": "STRING",
                    "description": "",
                    "default": "Albert Einstein"
                }
            ],
            "optional_parameters": [
                {
                    "name": "page",
                    "type": "NUMBER",
                    "description": "",
                    "default": "3"
                },
                {
                    "name": "limit",
                    "type": "NUMBER",
                    "description": "",
                    "default": "20"
                }
            ],
            "code": "import requests\n\nurl = \"https://world-of-quotes.p.rapidapi.com/v1/quotes\"\nquerystring = {\"page\": \"3\", \"limit\": \"20\", \"author\": \"Albert Einstein\"}\n\nheaders = {\n            \"X-RapidAPI-Key\": \"SIGN-UP-FOR-KEY\",\n            \"X-RapidAPI-Host\": \"world-of-quotes.p.rapidapi.com\"\n        }\n\nresponse = requests.get(url, headers=headers, params=querystring)\nprint(response.json())\n",
            "convert_code": "import requests\n\nurl = \"https://world-of-quotes.p.rapidapi.com/v1/quotes\"\nquerystring = {\"page\": \"3\", \"limit\": \"20\", \"author\": \"Albert Einstein\"}\n\nheaders = {\n            \"X-RapidAPI-Key\": \"SIGN-UP-FOR-KEY\",\n            \"X-RapidAPI-Host\": \"world-of-quotes.p.rapidapi.com\"\n        }\n\nresponse = requests.get(url, headers=headers, params=querystring)\nprint(response.json())\n",
            "test_endpoint": "",
            "statuscode": 200,
            "schema": {
                "results": [],
                "page": 1,
                "limit": 10,
                "totalPages": 87,
                "totalResults": 864
            }
        },
        {
            "name": "Get Authors",
            "url": "https://world-of-quotes.p.rapidapi.com/v1/quotes/author",
            "description": "This API returns array of over 10,000 authors we have in our library.\nThis returns an array of strings.",
            "method": "GET",
            "required_parameters": [],
            "optional_parameters": [],
            "code": "import requests\n\nurl = \"https://world-of-quotes.p.rapidapi.com/v1/quotes/author\"\n\nheaders = {\n            \"X-RapidAPI-Key\": \"SIGN-UP-FOR-KEY\",\n            \"X-RapidAPI-Host\": \"world-of-quotes.p.rapidapi.com\"\n        }\n\nresponse = requests.get(url, headers=headers)\nprint(response.json())\n",
            "convert_code": "import requests\n\nurl = \"https://world-of-quotes.p.rapidapi.com/v1/quotes/author\"\n\nheaders = {\n            \"X-RapidAPI-Key\": \"SIGN-UP-FOR-KEY\",\n            \"X-RapidAPI-Host\": \"world-of-quotes.p.rapidapi.com\"\n        }\n\nresponse = requests.get(url, headers=headers)\nprint(response.json())\n",
            "test_endpoint": "",
            "statuscode": 200,
            "schema": {}
        },
        {
            "name": "Get Quotes Category",
            "url": "https://world-of-quotes.p.rapidapi.com/v1/quotes/category",
            "description": "This API returns array of over 350 types of categories we have in our library.\nThis returns an array of strings. Real response will have more categories but in mock response we displayed a few.",
            "method": "GET",
            "required_parameters": [],
            "optional_parameters": [],
            "code": "import requests\n\nurl = \"https://world-of-quotes.p.rapidapi.com/v1/quotes/category\"\n\nheaders = {\n            \"X-RapidAPI-Key\": \"SIGN-UP-FOR-KEY\",\n            \"X-RapidAPI-Host\": \"world-of-quotes.p.rapidapi.com\"\n        }\n\nresponse = requests.get(url, headers=headers)\nprint(response.json())\n",
            "convert_code": "import requests\n\nurl = \"https://world-of-quotes.p.rapidapi.com/v1/quotes/category\"\n\nheaders = {\n            \"X-RapidAPI-Key\": \"SIGN-UP-FOR-KEY\",\n            \"X-RapidAPI-Host\": \"world-of-quotes.p.rapidapi.com\"\n        }\n\nresponse = requests.get(url, headers=headers)\nprint(response.json())\n",
            "test_endpoint": "",
            "statuscode": 200,
            "schema": {}
        }
    ]
}